…
range(trial_quality$Time)
#> [1]  233.164 1515.570

missing_data_per_trial <- trial_quality %>% 
  aggregate_looks(def, Group + Study + ResearchID + 
                    Matching_PairNumber + TrialID ~ GazeByImageAOI) %>% 
  select(Group:TrialID, PropNA) %>% 
  print()
#> # A tibble: 5,724 x 6
#>              Group      Study ResearchID Matching_PairNumber TrialID     PropNA
#>              <chr>      <chr>      <chr>               <int>   <int>      <dbl>
#>  1 CochlearImplant CochlearV1       300E                   1  104349 0.06410256
#>  2 CochlearImplant CochlearV1       300E                   1  104350 0.41025641
#>  3 CochlearImplant CochlearV1       300E                   1  104351 0.26923077
#>  4 CochlearImplant CochlearV1       300E                   1  104352 0.28205128
#>  5 CochlearImplant CochlearV1       300E                   1  104353 0.10256410
#>  6 CochlearImplant CochlearV1       300E                   1  104354 0.00000000
#>  7 CochlearImplant CochlearV1       300E                   1  104355 0.24358974
#>  8 CochlearImplant CochlearV1       300E                   1  104356 0.00000000
#>  9 CochlearImplant CochlearV1       300E                   1  104357 0.00000000
#> 10 CochlearImplant CochlearV1       300E                   1  104358 0.00000000
#> # ... with 5,714 more rows
```
…
``` r
# Narrow down to one row per trial
condition_counts <- looks_clean_blocks %>% 
  left_join(df_trials %>% select(TrialID, Condition)) %>% 
  select(Study, ResearchID, TrialID, Condition) %>% 
  distinct() %>% 
  # Count rows in each group
  count(Condition, Study, ResearchID) %>% 
  # Make sure 0 trials get counted
  tidyr::complete(tidyr::nesting(Study, ResearchID), Condition, 
                  fill = list(n = 0)) %>% 
  arrange(n) %>% 
  rename(`Num Trials in Condition` = n) %>% 
  print()
#> # A tibble: 234 x 4
#>         Study ResearchID Condition `Num Trials in Condition`
#>         <chr>      <chr>     <chr>                     <dbl>
#>  1 TimePoint2       665L        MP                         6
#>  2 TimePoint3       665L  nonsense                         6
#>  3 CochlearV2       312E  nonsense                         8
#>  4 TimePoint2       665L  nonsense                         8
#>  5 TimePoint3       665L        MP                         8
#>  6 TimePoint3       665L      real                         8
#>  7 TimePoint2       679L  nonsense                         9
#>  8 TimePoint1       679L      real                        10
#>  9 TimePoint2       665L      real                        10
#> 10 CochlearV1       306E      real                        11
#> # ... with 224 more rows
```
…
